% cols: noise (dBm), riometers 1:8
% 
hwcomms_calib = ...
    [-100  6.57  6.9   6.95  6.37  6.41  6.39  6.01  6.22;
     -105  3.81  4     4.02  3.65  3.78  3.61  3.34  3.38;
     -110  2.17  2.19  2.25  2.13  2.18  2.01  1.82  1.84;
     -115  1.33  1.35  1.46  1.36  1.42  1.31  1.1   1.08;
     -120  0.99  0.98  1.13  1.06  1.1   1.02  0.78  0.76;
     -125  0.87  0.86  1.02  0.96  0.99  0.91  0.67  0.64;
     -130  0.83  0.82  0.98  0.92  0.95  0.87  0.64  0.61;
     -135  0.81  0.81  0.97  0.91  0.94  0.86  0.63  0.59; ];

% cols: noise (dBm), riometers 1:8
bas_calib = ...
    [-99     7.49    7.63    7.74    7.27    7.25    7.43    7.01    7.3;
     -100     6.7    6.82    6.87     6.5    6.44    6.66    6.2     6.38;
     -105    3.71    3.8     3.88    3.66    3.62    3.8     3.3     3.5;
     -110    2.17    2.22    2.33    2.21    2.17    2.24    1.88    1.99;
     -115    1.41    1.42    1.56    1.47    1.45    1.45    1.19    1.2;
     -120    1.04    1.04     1.2    1.13    1.13    1.08    0.84    0.82;
     -125     0.9    0.89    1.07    1       1.02    0.95    0.72    0.67;
     -130    0.85    0.83    1.04    0.96    0.97    0.9     0.67    0.62;
     -135    0.84    0.82    1.02    0.94    0.96    0.89    0.66    0.6;
     -140    0.83    0.81    1.01    0.93    0.95    0.88    0.65    0.59;]
% current       76     76      75      77      75      75      75      77
