%!PS-Adobe-2.0
%%Creator: Graphviz version 2.18 (Wed Aug  6 10:29:47 UTC 2008)
%%For: (marple) Steve Marple,,,
%%Title: 
%%Pages: (atend)
%%BoundingBox: (atend)
%%EndComments
save
%%BeginProlog
/DotDict 200 dict def
DotDict begin

/setupLatin1 {
mark
/EncodingVector 256 array def
 EncodingVector 0

ISOLatin1Encoding 0 255 getinterval putinterval
EncodingVector 45 /hyphen put

% Set up ISO Latin 1 character encoding
/starnetISO {
        dup dup findfont dup length dict begin
        { 1 index /FID ne { def }{ pop pop } ifelse
        } forall
        /Encoding EncodingVector def
        currentdict end definefont
} def
/Times-Roman starnetISO def
/Times-Italic starnetISO def
/Times-Bold starnetISO def
/Times-BoldItalic starnetISO def
/Helvetica starnetISO def
/Helvetica-Oblique starnetISO def
/Helvetica-Bold starnetISO def
/Helvetica-BoldOblique starnetISO def
/Courier starnetISO def
/Courier-Oblique starnetISO def
/Courier-Bold starnetISO def
/Courier-BoldOblique starnetISO def
cleartomark
} bind def

%%BeginResource: procset graphviz 0 0
/coord-font-family /Times-Roman def
/default-font-family /Times-Roman def
/coordfont coord-font-family findfont 8 scalefont def

/InvScaleFactor 1.0 def
/set_scale {
       dup 1 exch div /InvScaleFactor exch def
       scale
} bind def

% styles
/solid { [] 0 setdash } bind def
/dashed { [9 InvScaleFactor mul dup ] 0 setdash } bind def
/dotted { [1 InvScaleFactor mul 6 InvScaleFactor mul] 0 setdash } bind def
/invis {/fill {newpath} def /stroke {newpath} def /show {pop newpath} def} bind def
/bold { 2 setlinewidth } bind def
/filled { } bind def
/unfilled { } bind def
/rounded { } bind def
/diagonals { } bind def

% hooks for setting color 
/nodecolor { sethsbcolor } bind def
/edgecolor { sethsbcolor } bind def
/graphcolor { sethsbcolor } bind def
/nopcolor {pop pop pop} bind def

/beginpage {	% i j npages
	/npages exch def
	/j exch def
	/i exch def
	/str 10 string def
	npages 1 gt {
		gsave
			coordfont setfont
			0 0 moveto
			(\() show i str cvs show (,) show j str cvs show (\)) show
		grestore
	} if
} bind def

/set_font {
	findfont exch
	scalefont setfont
} def

% draw text fitted to its expected width
/alignedtext {			% width text
	/text exch def
	/width exch def
	gsave
		width 0 gt {
			[] 0 setdash
			text stringwidth pop width exch sub text length div 0 text ashow
		} if
	grestore
} def

/boxprim {				% xcorner ycorner xsize ysize
		4 2 roll
		moveto
		2 copy
		exch 0 rlineto
		0 exch rlineto
		pop neg 0 rlineto
		closepath
} bind def

/ellipse_path {
	/ry exch def
	/rx exch def
	/y exch def
	/x exch def
	matrix currentmatrix
	newpath
	x y translate
	rx ry scale
	0 0 1 0 360 arc
	setmatrix
} bind def

/endpage { showpage } bind def
/showpage { } def

/layercolorseq
	[	% layer color sequence - darkest to lightest
		[0 0 0]
		[.2 .8 .8]
		[.4 .8 .8]
		[.6 .8 .8]
		[.8 .8 .8]
	]
def

/layerlen layercolorseq length def

/setlayer {/maxlayer exch def /curlayer exch def
	layercolorseq curlayer 1 sub layerlen mod get
	aload pop sethsbcolor
	/nodecolor {nopcolor} def
	/edgecolor {nopcolor} def
	/graphcolor {nopcolor} def
} bind def

/onlayer { curlayer ne {invis} if } def

/onlayers {
	/myupper exch def
	/mylower exch def
	curlayer mylower lt
	curlayer myupper gt
	or
	{invis} if
} def

/curlayer 0 def

%%EndResource
%%EndProlog
%%BeginSetup
14 default-font-family set_font
1 setmiterlimit
% /arrowlength 10 def
% /arrowwidth 5 def

% make sure pdfmark is harmless for PS-interpreters other than Distiller
/pdfmark where {pop} {userdict /pdfmark /cleartomark load put} ifelse
% make '<<' and '>>' safe on PS Level 1 devices
/languagelevel where {pop languagelevel}{1} ifelse
2 lt {
    userdict (<<) cvn ([) cvn load put
    userdict (>>) cvn ([) cvn load put
} if

%%EndSetup
setupLatin1
%%Page: 1 1
%%PageBoundingBox: 36 36 550 224
%%PageOrientation: Portrait
0 0 1 beginpage
gsave
36 36 514 188 boxprim clip newpath
1 1 set_scale 0 rotate 40 40 translate
% camera
gsave
1 setlinewidth
0.000 0.000 0.000 nodecolor
newpath 0 72 moveto
0 108 lineto
56 108 lineto
56 72 lineto
closepath stroke
0.000 0.000 0.000 nodecolor
14 /Times-Roman set_font
8 91.4 moveto 40 (camera) alignedtext
grestore
% mia_instrument_base
gsave
1 setlinewidth
0.000 0.000 0.000 nodecolor
newpath 179 144 moveto
179 180 lineto
312 180 lineto
312 144 lineto
closepath stroke
0.000 0.000 0.000 nodecolor
14 /Times-Roman set_font
186.5 163.4 moveto 117 (mia_instrument_base) alignedtext
grestore
% mia_instrument_base->camera
gsave
1 setlinewidth
0.000 0.000 0.000 edgecolor
newpath 179 145 moveto
144 135 102 122 65 108 curveto
62 107 59 105 56 104 curveto
stroke
grestore
% radar_base
gsave
1 setlinewidth
0.000 0.000 0.000 nodecolor
newpath 74 72 moveto
74 108 lineto
149 108 lineto
149 72 lineto
closepath stroke
0.000 0.000 0.000 nodecolor
14 /Times-Roman set_font
81.5 91.4 moveto 59 (radar_base) alignedtext
grestore
% mia_instrument_base->radar_base
gsave
1 setlinewidth
0.000 0.000 0.000 edgecolor
newpath 211 144 moveto
190 133 164 119 144 108 curveto
stroke
grestore
% energymap
gsave
1 setlinewidth
0.000 0.000 0.000 nodecolor
newpath 166 72 moveto
166 108 lineto
243 108 lineto
243 72 lineto
closepath stroke
0.000 0.000 0.000 nodecolor
14 /Times-Roman set_font
173.5 91.4 moveto 61 (energymap) alignedtext
grestore
% mia_instrument_base->energymap
gsave
1 setlinewidth
0.000 0.000 0.000 edgecolor
newpath 235 144 moveto
229 133 221 119 214 108 curveto
stroke
grestore
% heater
gsave
1 setlinewidth
0.000 0.000 0.000 nodecolor
newpath 260 72 moveto
260 108 lineto
314 108 lineto
314 72 lineto
closepath stroke
0.000 0.000 0.000 nodecolor
14 /Times-Roman set_font
270.5 91.4 moveto 33 (heater) alignedtext
grestore
% mia_instrument_base->heater
gsave
1 setlinewidth
0.000 0.000 0.000 edgecolor
newpath 256 144 moveto
262 133 270 119 277 108 curveto
stroke
grestore
% magnetometer
gsave
1 setlinewidth
0.000 0.000 0.000 nodecolor
newpath 332 72 moveto
332 108 lineto
427 108 lineto
427 72 lineto
closepath stroke
0.000 0.000 0.000 nodecolor
14 /Times-Roman set_font
339.5 91.4 moveto 79 (magnetometer) alignedtext
grestore
% mia_instrument_base->magnetometer
gsave
1 setlinewidth
0.000 0.000 0.000 edgecolor
newpath 279 144 moveto
300 133 326 119 346 108 curveto
stroke
grestore
% riometer
gsave
1 setlinewidth
0.000 0.000 0.000 nodecolor
newpath 444 72 moveto
444 108 lineto
507 108 lineto
507 72 lineto
closepath stroke
0.000 0.000 0.000 nodecolor
14 /Times-Roman set_font
451.5 91.4 moveto 47 (riometer) alignedtext
grestore
% mia_instrument_base->riometer
gsave
1 setlinewidth
0.000 0.000 0.000 edgecolor
newpath 312 145 moveto
349 136 395 123 435 108 curveto
438 107 441 106 444 104 curveto
stroke
grestore
% cs_radar
gsave
1 setlinewidth
0.000 0.000 0.000 nodecolor
newpath 40 0 moveto
40 36 lineto
102 36 lineto
102 0 lineto
closepath stroke
0.000 0.000 0.000 nodecolor
14 /Times-Roman set_font
48 19.4 moveto 46 (cs_radar) alignedtext
grestore
% radar_base->cs_radar
gsave
1 setlinewidth
0.000 0.000 0.000 edgecolor
newpath 101 72 moveto
95 61 87 47 81 36 curveto
stroke
grestore
% is_radar
gsave
1 setlinewidth
0.000 0.000 0.000 nodecolor
newpath 120 0 moveto
120 36 lineto
180 36 lineto
180 0 lineto
closepath stroke
0.000 0.000 0.000 nodecolor
14 /Times-Roman set_font
128 19.4 moveto 44 (is_radar) alignedtext
grestore
% radar_base->is_radar
gsave
1 setlinewidth
0.000 0.000 0.000 edgecolor
newpath 121 72 moveto
127 61 134 47 140 36 curveto
stroke
grestore
% pulsation_magnetometer
gsave
1 setlinewidth
0.000 0.000 0.000 nodecolor
newpath 304 0 moveto
304 36 lineto
455 36 lineto
455 0 lineto
closepath stroke
0.000 0.000 0.000 nodecolor
14 /Times-Roman set_font
311.5 19.4 moveto 135 (pulsation_magnetometer) alignedtext
grestore
% magnetometer->pulsation_magnetometer
gsave
1 setlinewidth
0.000 0.000 0.000 edgecolor
newpath 379 72 moveto
379 61 379 47 379 36 curveto
stroke
grestore
endpage
showpage
grestore
%%PageTrailer
%%EndPage: 1
%%Trailer
%%Pages: 1
%%BoundingBox: 36 36 550 224
end
restore
%%EOF
