%!PS-Adobe-2.0
%%Creator: Graphviz version 2.18 (Wed Aug  6 10:29:47 UTC 2008)
%%For: (marple) Steve Marple,,,
%%Title: 
%%Pages: (atend)
%%BoundingBox: (atend)
%%EndComments
save
%%BeginProlog
/DotDict 200 dict def
DotDict begin

/setupLatin1 {
mark
/EncodingVector 256 array def
 EncodingVector 0

ISOLatin1Encoding 0 255 getinterval putinterval
EncodingVector 45 /hyphen put

% Set up ISO Latin 1 character encoding
/starnetISO {
        dup dup findfont dup length dict begin
        { 1 index /FID ne { def }{ pop pop } ifelse
        } forall
        /Encoding EncodingVector def
        currentdict end definefont
} def
/Times-Roman starnetISO def
/Times-Italic starnetISO def
/Times-Bold starnetISO def
/Times-BoldItalic starnetISO def
/Helvetica starnetISO def
/Helvetica-Oblique starnetISO def
/Helvetica-Bold starnetISO def
/Helvetica-BoldOblique starnetISO def
/Courier starnetISO def
/Courier-Oblique starnetISO def
/Courier-Bold starnetISO def
/Courier-BoldOblique starnetISO def
cleartomark
} bind def

%%BeginResource: procset graphviz 0 0
/coord-font-family /Times-Roman def
/default-font-family /Times-Roman def
/coordfont coord-font-family findfont 8 scalefont def

/InvScaleFactor 1.0 def
/set_scale {
       dup 1 exch div /InvScaleFactor exch def
       scale
} bind def

% styles
/solid { [] 0 setdash } bind def
/dashed { [9 InvScaleFactor mul dup ] 0 setdash } bind def
/dotted { [1 InvScaleFactor mul 6 InvScaleFactor mul] 0 setdash } bind def
/invis {/fill {newpath} def /stroke {newpath} def /show {pop newpath} def} bind def
/bold { 2 setlinewidth } bind def
/filled { } bind def
/unfilled { } bind def
/rounded { } bind def
/diagonals { } bind def

% hooks for setting color 
/nodecolor { sethsbcolor } bind def
/edgecolor { sethsbcolor } bind def
/graphcolor { sethsbcolor } bind def
/nopcolor {pop pop pop} bind def

/beginpage {	% i j npages
	/npages exch def
	/j exch def
	/i exch def
	/str 10 string def
	npages 1 gt {
		gsave
			coordfont setfont
			0 0 moveto
			(\() show i str cvs show (,) show j str cvs show (\)) show
		grestore
	} if
} bind def

/set_font {
	findfont exch
	scalefont setfont
} def

% draw text fitted to its expected width
/alignedtext {			% width text
	/text exch def
	/width exch def
	gsave
		width 0 gt {
			[] 0 setdash
			text stringwidth pop width exch sub text length div 0 text ashow
		} if
	grestore
} def

/boxprim {				% xcorner ycorner xsize ysize
		4 2 roll
		moveto
		2 copy
		exch 0 rlineto
		0 exch rlineto
		pop neg 0 rlineto
		closepath
} bind def

/ellipse_path {
	/ry exch def
	/rx exch def
	/y exch def
	/x exch def
	matrix currentmatrix
	newpath
	x y translate
	rx ry scale
	0 0 1 0 360 arc
	setmatrix
} bind def

/endpage { showpage } bind def
/showpage { } def

/layercolorseq
	[	% layer color sequence - darkest to lightest
		[0 0 0]
		[.2 .8 .8]
		[.4 .8 .8]
		[.6 .8 .8]
		[.8 .8 .8]
	]
def

/layerlen layercolorseq length def

/setlayer {/maxlayer exch def /curlayer exch def
	layercolorseq curlayer 1 sub layerlen mod get
	aload pop sethsbcolor
	/nodecolor {nopcolor} def
	/edgecolor {nopcolor} def
	/graphcolor {nopcolor} def
} bind def

/onlayer { curlayer ne {invis} if } def

/onlayers {
	/myupper exch def
	/mylower exch def
	curlayer mylower lt
	curlayer myupper gt
	or
	{invis} if
} def

/curlayer 0 def

%%EndResource
%%EndProlog
%%BeginSetup
14 default-font-family set_font
1 setmiterlimit
% /arrowlength 10 def
% /arrowwidth 5 def

% make sure pdfmark is harmless for PS-interpreters other than Distiller
/pdfmark where {pop} {userdict /pdfmark /cleartomark load put} ifelse
% make '<<' and '>>' safe on PS Level 1 devices
/languagelevel where {pop languagelevel}{1} ifelse
2 lt {
    userdict (<<) cvn ([) cvn load put
    userdict (>>) cvn ([) cvn load put
} if

%%EndSetup
setupLatin1
%%Page: 1 1
%%PageBoundingBox: 36 36 1941 296
%%PageOrientation: Portrait
0 0 1 beginpage
gsave
36 36 1905 260 boxprim clip newpath
1 1 set_scale 0 rotate 40 40 translate
% mia_despike_base
gsave
1 setlinewidth
0.000 0.000 0.000 nodecolor
newpath 167 144 moveto
167 180 lineto
283 180 lineto
283 144 lineto
closepath stroke
0.000 0.000 0.000 nodecolor
14 /Times-Roman set_font
175 163.4 moveto 100 (mia_despike_base) alignedtext
grestore
% mia_filter_as_despike
gsave
1 setlinewidth
0.000 0.000 0.000 nodecolor
newpath 5 72 moveto
5 108 lineto
141 108 lineto
141 72 lineto
closepath stroke
0.000 0.000 0.000 nodecolor
14 /Times-Roman set_font
13 91.4 moveto 120 (mia_filter_as_despike) alignedtext
grestore
% mia_despike_base->mia_filter_as_despike
gsave
1 setlinewidth
0.000 0.000 0.000 edgecolor
newpath 187 144 moveto
164 133 134 119 111 108 curveto
stroke
grestore
% mia_filter_chauvenet
gsave
1 setlinewidth
0.000 0.000 0.000 nodecolor
newpath 159 72 moveto
159 108 lineto
291 108 lineto
291 72 lineto
closepath stroke
0.000 0.000 0.000 nodecolor
14 /Times-Roman set_font
167 91.4 moveto 116 (mia_filter_chauvenet) alignedtext
grestore
% mia_despike_base->mia_filter_chauvenet
gsave
1 setlinewidth
0.000 0.000 0.000 edgecolor
newpath 225 144 moveto
225 133 225 119 225 108 curveto
stroke
grestore
% mia_filter_dkm_despike
gsave
1 setlinewidth
0.000 0.000 0.000 nodecolor
newpath 309 72 moveto
309 108 lineto
459 108 lineto
459 72 lineto
closepath stroke
0.000 0.000 0.000 nodecolor
14 /Times-Roman set_font
317 91.4 moveto 134 (mia_filter_dkm_despike) alignedtext
grestore
% mia_despike_base->mia_filter_dkm_despike
gsave
1 setlinewidth
0.000 0.000 0.000 edgecolor
newpath 265 144 moveto
289 133 320 119 344 108 curveto
stroke
grestore
% mia_filter_base
gsave
1 setlinewidth
0.000 0.000 0.000 nodecolor
newpath 953 216 moveto
953 252 lineto
1054 252 lineto
1054 216 lineto
closepath stroke
0.000 0.000 0.000 nodecolor
14 /Times-Roman set_font
960.5 235.4 moveto 85 (mia_filter_base) alignedtext
grestore
% mia_filter_base->mia_despike_base
gsave
1 setlinewidth
0.000 0.000 0.000 edgecolor
newpath 953 233 moveto
836 231 538 222 292 180 curveto
289 179 286 179 283 178 curveto
stroke
grestore
% mia_filter_fixed
gsave
1 setlinewidth
0.000 0.000 0.000 nodecolor
newpath 301 144 moveto
301 180 lineto
406 180 lineto
406 144 lineto
closepath stroke
0.000 0.000 0.000 nodecolor
14 /Times-Roman set_font
308.5 163.4 moveto 89 (mia_filter_fixed) alignedtext
grestore
% mia_filter_base->mia_filter_fixed
gsave
1 setlinewidth
0.000 0.000 0.000 edgecolor
newpath 953 233 moveto
850 229 612 217 414 180 curveto
411 179 409 179 406 178 curveto
stroke
grestore
% mia_filter_gaussian_average
gsave
1 setlinewidth
0.000 0.000 0.000 nodecolor
newpath 423 144 moveto
423 180 lineto
595 180 lineto
595 144 lineto
closepath stroke
0.000 0.000 0.000 nodecolor
14 /Times-Roman set_font
431 163.4 moveto 156 (mia_filter_gaussian_average) alignedtext
grestore
% mia_filter_base->mia_filter_gaussian_average
gsave
1 setlinewidth
0.000 0.000 0.000 edgecolor
newpath 953 228 moveto
877 219 729 200 604 180 curveto
601 180 598 179 595 179 curveto
stroke
grestore
% mia_filter_interp
gsave
1 setlinewidth
0.000 0.000 0.000 nodecolor
newpath 613 144 moveto
613 180 lineto
721 180 lineto
721 144 lineto
closepath stroke
0.000 0.000 0.000 nodecolor
14 /Times-Roman set_font
621 163.4 moveto 92 (mia_filter_interp) alignedtext
grestore
% mia_filter_base->mia_filter_interp
gsave
1 setlinewidth
0.000 0.000 0.000 edgecolor
newpath 953 225 moveto
898 216 808 199 730 180 curveto
727 179 724 179 721 178 curveto
stroke
grestore
% mia_filter_qdc_mean_sd
gsave
1 setlinewidth
0.000 0.000 0.000 nodecolor
newpath 739 144 moveto
739 180 lineto
891 180 lineto
891 144 lineto
closepath stroke
0.000 0.000 0.000 nodecolor
14 /Times-Roman set_font
747 163.4 moveto 136 (mia_filter_qdc_mean_sd) alignedtext
grestore
% mia_filter_base->mia_filter_qdc_mean_sd
gsave
1 setlinewidth
0.000 0.000 0.000 edgecolor
newpath 956 216 moveto
927 205 891 191 862 180 curveto
stroke
grestore
% mia_filter_remove_scintillation
gsave
1 setlinewidth
0.000 0.000 0.000 nodecolor
newpath 909 144 moveto
909 180 lineto
1098 180 lineto
1098 144 lineto
closepath stroke
0.000 0.000 0.000 nodecolor
14 /Times-Roman set_font
916.5 163.4 moveto 173 (mia_filter_remove_scintillation) alignedtext
grestore
% mia_filter_base->mia_filter_remove_scintillation
gsave
1 setlinewidth
0.000 0.000 0.000 edgecolor
newpath 1003 216 moveto
1003 205 1003 191 1003 180 curveto
stroke
grestore
% mia_filter_replace_nans
gsave
1 setlinewidth
0.000 0.000 0.000 nodecolor
newpath 1115 144 moveto
1115 180 lineto
1262 180 lineto
1262 144 lineto
closepath stroke
0.000 0.000 0.000 nodecolor
14 /Times-Roman set_font
1122.5 163.4 moveto 131 (mia_filter_replace_nans) alignedtext
grestore
% mia_filter_base->mia_filter_replace_nans
gsave
1 setlinewidth
0.000 0.000 0.000 edgecolor
newpath 1050 216 moveto
1078 205 1114 191 1142 180 curveto
stroke
grestore
% mia_filter_samnet
gsave
1 setlinewidth
0.000 0.000 0.000 nodecolor
newpath 1279 144 moveto
1279 180 lineto
1395 180 lineto
1395 144 lineto
closepath stroke
0.000 0.000 0.000 nodecolor
14 /Times-Roman set_font
1287 163.4 moveto 100 (mia_filter_samnet) alignedtext
grestore
% mia_filter_base->mia_filter_samnet
gsave
1 setlinewidth
0.000 0.000 0.000 edgecolor
newpath 1054 224 moveto
1108 214 1195 197 1270 180 curveto
1273 179 1276 178 1279 178 curveto
stroke
grestore
% mia_filter_sgolay
gsave
1 setlinewidth
0.000 0.000 0.000 nodecolor
newpath 1413 144 moveto
1413 180 lineto
1525 180 lineto
1525 144 lineto
closepath stroke
0.000 0.000 0.000 nodecolor
14 /Times-Roman set_font
1421 163.4 moveto 96 (mia_filter_sgolay) alignedtext
grestore
% mia_filter_base->mia_filter_sgolay
gsave
1 setlinewidth
0.000 0.000 0.000 edgecolor
newpath 1054 229 moveto
1131 222 1279 205 1404 180 curveto
1407 179 1410 179 1413 178 curveto
stroke
grestore
% mia_filter_sliding_average
gsave
1 setlinewidth
0.000 0.000 0.000 nodecolor
newpath 1543 144 moveto
1543 180 lineto
1705 180 lineto
1705 144 lineto
closepath stroke
0.000 0.000 0.000 nodecolor
14 /Times-Roman set_font
1551 163.4 moveto 146 (mia_filter_sliding_average) alignedtext
grestore
% mia_filter_base->mia_filter_sliding_average
gsave
1 setlinewidth
0.000 0.000 0.000 edgecolor
newpath 1054 230 moveto
1149 223 1358 206 1534 180 curveto
1537 180 1540 179 1543 178 curveto
stroke
grestore
% mia_filter_weighted_average
gsave
1 setlinewidth
0.000 0.000 0.000 nodecolor
newpath 1723 144 moveto
1723 180 lineto
1898 180 lineto
1898 144 lineto
closepath stroke
0.000 0.000 0.000 nodecolor
14 /Times-Roman set_font
1730.5 163.4 moveto 159 (mia_filter_weighted_average) alignedtext
grestore
% mia_filter_base->mia_filter_weighted_average
gsave
1 setlinewidth
0.000 0.000 0.000 edgecolor
newpath 1054 232 moveto
1172 227 1468 212 1714 180 curveto
1717 180 1720 179 1723 179 curveto
stroke
grestore
% mia_filter_srm_despike
gsave
1 setlinewidth
0.000 0.000 0.000 nodecolor
newpath 0 0 moveto
0 36 lineto
146 36 lineto
146 0 lineto
closepath stroke
0.000 0.000 0.000 nodecolor
14 /Times-Roman set_font
8 19.4 moveto 130 (mia_filter_srm_despike) alignedtext
grestore
% mia_filter_as_despike->mia_filter_srm_despike
gsave
1 setlinewidth
0.000 0.000 0.000 edgecolor
newpath 73 72 moveto
73 61 73 47 73 36 curveto
stroke
grestore
endpage
showpage
grestore
%%PageTrailer
%%EndPage: 1
%%Trailer
%%Pages: 1
%%BoundingBox: 36 36 1941 296
end
restore
%%EOF
