%!PS-Adobe-2.0
%%Creator: Graphviz version 2.18 (Wed Aug  6 10:29:47 UTC 2008)
%%For: (marple) Steve Marple,,,
%%Title: 
%%Pages: (atend)
%%BoundingBox: (atend)
%%EndComments
save
%%BeginProlog
/DotDict 200 dict def
DotDict begin

/setupLatin1 {
mark
/EncodingVector 256 array def
 EncodingVector 0

ISOLatin1Encoding 0 255 getinterval putinterval
EncodingVector 45 /hyphen put

% Set up ISO Latin 1 character encoding
/starnetISO {
        dup dup findfont dup length dict begin
        { 1 index /FID ne { def }{ pop pop } ifelse
        } forall
        /Encoding EncodingVector def
        currentdict end definefont
} def
/Times-Roman starnetISO def
/Times-Italic starnetISO def
/Times-Bold starnetISO def
/Times-BoldItalic starnetISO def
/Helvetica starnetISO def
/Helvetica-Oblique starnetISO def
/Helvetica-Bold starnetISO def
/Helvetica-BoldOblique starnetISO def
/Courier starnetISO def
/Courier-Oblique starnetISO def
/Courier-Bold starnetISO def
/Courier-BoldOblique starnetISO def
cleartomark
} bind def

%%BeginResource: procset graphviz 0 0
/coord-font-family /Times-Roman def
/default-font-family /Times-Roman def
/coordfont coord-font-family findfont 8 scalefont def

/InvScaleFactor 1.0 def
/set_scale {
       dup 1 exch div /InvScaleFactor exch def
       scale
} bind def

% styles
/solid { [] 0 setdash } bind def
/dashed { [9 InvScaleFactor mul dup ] 0 setdash } bind def
/dotted { [1 InvScaleFactor mul 6 InvScaleFactor mul] 0 setdash } bind def
/invis {/fill {newpath} def /stroke {newpath} def /show {pop newpath} def} bind def
/bold { 2 setlinewidth } bind def
/filled { } bind def
/unfilled { } bind def
/rounded { } bind def
/diagonals { } bind def

% hooks for setting color 
/nodecolor { sethsbcolor } bind def
/edgecolor { sethsbcolor } bind def
/graphcolor { sethsbcolor } bind def
/nopcolor {pop pop pop} bind def

/beginpage {	% i j npages
	/npages exch def
	/j exch def
	/i exch def
	/str 10 string def
	npages 1 gt {
		gsave
			coordfont setfont
			0 0 moveto
			(\() show i str cvs show (,) show j str cvs show (\)) show
		grestore
	} if
} bind def

/set_font {
	findfont exch
	scalefont setfont
} def

% draw text fitted to its expected width
/alignedtext {			% width text
	/text exch def
	/width exch def
	gsave
		width 0 gt {
			[] 0 setdash
			text stringwidth pop width exch sub text length div 0 text ashow
		} if
	grestore
} def

/boxprim {				% xcorner ycorner xsize ysize
		4 2 roll
		moveto
		2 copy
		exch 0 rlineto
		0 exch rlineto
		pop neg 0 rlineto
		closepath
} bind def

/ellipse_path {
	/ry exch def
	/rx exch def
	/y exch def
	/x exch def
	matrix currentmatrix
	newpath
	x y translate
	rx ry scale
	0 0 1 0 360 arc
	setmatrix
} bind def

/endpage { showpage } bind def
/showpage { } def

/layercolorseq
	[	% layer color sequence - darkest to lightest
		[0 0 0]
		[.2 .8 .8]
		[.4 .8 .8]
		[.6 .8 .8]
		[.8 .8 .8]
	]
def

/layerlen layercolorseq length def

/setlayer {/maxlayer exch def /curlayer exch def
	layercolorseq curlayer 1 sub layerlen mod get
	aload pop sethsbcolor
	/nodecolor {nopcolor} def
	/edgecolor {nopcolor} def
	/graphcolor {nopcolor} def
} bind def

/onlayer { curlayer ne {invis} if } def

/onlayers {
	/myupper exch def
	/mylower exch def
	curlayer mylower lt
	curlayer myupper gt
	or
	{invis} if
} def

/curlayer 0 def

%%EndResource
%%EndProlog
%%BeginSetup
14 default-font-family set_font
1 setmiterlimit
% /arrowlength 10 def
% /arrowwidth 5 def

% make sure pdfmark is harmless for PS-interpreters other than Distiller
/pdfmark where {pop} {userdict /pdfmark /cleartomark load put} ifelse
% make '<<' and '>>' safe on PS Level 1 devices
/languagelevel where {pop languagelevel}{1} ifelse
2 lt {
    userdict (<<) cvn ([) cvn load put
    userdict (>>) cvn ([) cvn load put
} if

%%EndSetup
setupLatin1
%%Page: 1 1
%%PageBoundingBox: 36 36 3479 368
%%PageOrientation: Portrait
0 0 1 beginpage
gsave
36 36 3443 332 boxprim clip newpath
1 1 set_scale 0 rotate 40 40 translate
% ap_index
gsave
1 setlinewidth
0.000 0.000 0.000 nodecolor
newpath 24 72 moveto
24 108 lineto
90 108 lineto
90 72 lineto
closepath stroke
0.000 0.000 0.000 nodecolor
14 /Times-Roman set_font
32 91.4 moveto 50 (ap_index) alignedtext
grestore
% stp_index_generic
gsave
1 setlinewidth
0.000 0.000 0.000 nodecolor
newpath 0 144 moveto
0 180 lineto
115 180 lineto
115 144 lineto
closepath stroke
0.000 0.000 0.000 nodecolor
14 /Times-Roman set_font
7.5 163.4 moveto 99 (stp_index_generic) alignedtext
grestore
% stp_index_generic->ap_index
gsave
1 setlinewidth
0.000 0.000 0.000 edgecolor
newpath 57 144 moveto
57 133 57 119 57 108 curveto
stroke
grestore
% stp_index_base
gsave
1 setlinewidth
0.000 0.000 0.000 nodecolor
newpath 116 216 moveto
116 252 lineto
215 252 lineto
215 216 lineto
closepath stroke
0.000 0.000 0.000 nodecolor
14 /Times-Roman set_font
123.5 235.4 moveto 83 (stp_index_base) alignedtext
grestore
% stp_index_base->stp_index_generic
gsave
1 setlinewidth
0.000 0.000 0.000 edgecolor
newpath 138 216 moveto
121 205 100 191 84 180 curveto
stroke
grestore
% kp_index
gsave
1 setlinewidth
0.000 0.000 0.000 nodecolor
newpath 132 144 moveto
132 180 lineto
198 180 lineto
198 144 lineto
closepath stroke
0.000 0.000 0.000 nodecolor
14 /Times-Roman set_font
140 163.4 moveto 50 (kp_index) alignedtext
grestore
% stp_index_base->kp_index
gsave
1 setlinewidth
0.000 0.000 0.000 edgecolor
newpath 165 216 moveto
165 205 165 191 165 180 curveto
stroke
grestore
% mia_base
gsave
1 setlinewidth
0.000 0.000 0.000 nodecolor
newpath 530 288 moveto
530 324 lineto
598 324 lineto
598 288 lineto
closepath stroke
0.000 0.000 0.000 nodecolor
14 /Times-Roman set_font
538 307.4 moveto 52 (mia_base) alignedtext
grestore
% mia_base->stp_index_base
gsave
1 setlinewidth
0.000 0.000 0.000 edgecolor
newpath 530 300 moveto
459 287 297 258 215 243 curveto
stroke
grestore
% mia_image_base
gsave
1 setlinewidth
0.000 0.000 0.000 nodecolor
newpath 342 216 moveto
342 252 lineto
450 252 lineto
450 216 lineto
closepath stroke
0.000 0.000 0.000 nodecolor
14 /Times-Roman set_font
350 235.4 moveto 92 (mia_image_base) alignedtext
grestore
% mia_base->mia_image_base
gsave
1 setlinewidth
0.000 0.000 0.000 edgecolor
newpath 530 291 moveto
503 280 466 264 438 252 curveto
stroke
grestore
% heater_data
gsave
1 setlinewidth
0.000 0.000 0.000 nodecolor
newpath 480 216 moveto
480 252 lineto
558 252 lineto
558 216 lineto
closepath stroke
0.000 0.000 0.000 nodecolor
14 /Times-Roman set_font
488 235.4 moveto 62 (heater_data) alignedtext
grestore
% mia_base->heater_data
gsave
1 setlinewidth
0.000 0.000 0.000 edgecolor
newpath 553 288 moveto
546 277 537 263 530 252 curveto
stroke
grestore
% mag_data
gsave
1 setlinewidth
0.000 0.000 0.000 nodecolor
newpath 576 216 moveto
576 252 lineto
645 252 lineto
645 216 lineto
closepath stroke
0.000 0.000 0.000 nodecolor
14 /Times-Roman set_font
583.5 235.4 moveto 53 (mag_data) alignedtext
grestore
% mia_base->mag_data
gsave
1 setlinewidth
0.000 0.000 0.000 edgecolor
newpath 576 288 moveto
583 277 592 263 599 252 curveto
stroke
grestore
% rio_base
gsave
1 setlinewidth
0.000 0.000 0.000 nodecolor
newpath 668 216 moveto
668 252 lineto
730 252 lineto
730 216 lineto
closepath stroke
0.000 0.000 0.000 nodecolor
14 /Times-Roman set_font
676 235.4 moveto 46 (rio_base) alignedtext
grestore
% mia_base->rio_base
gsave
1 setlinewidth
0.000 0.000 0.000 edgecolor
newpath 598 288 moveto
619 277 647 262 668 251 curveto
stroke
grestore
% temp_data
gsave
1 setlinewidth
0.000 0.000 0.000 nodecolor
newpath 748 216 moveto
748 252 lineto
821 252 lineto
821 216 lineto
closepath stroke
0.000 0.000 0.000 nodecolor
14 /Times-Roman set_font
755.5 235.4 moveto 57 (temp_data) alignedtext
grestore
% mia_base->temp_data
gsave
1 setlinewidth
0.000 0.000 0.000 edgecolor
newpath 598 296 moveto
634 286 691 269 739 252 curveto
742 251 745 250 748 249 curveto
stroke
grestore
% camera
gsave
1 setlinewidth
0.000 0.000 0.000 nodecolor
newpath 1071 216 moveto
1071 252 lineto
1127 252 lineto
1127 216 lineto
closepath stroke
0.000 0.000 0.000 nodecolor
14 /Times-Roman set_font
1079 235.4 moveto 40 (camera) alignedtext
grestore
% mia_instrument_base
gsave
1 setlinewidth
0.000 0.000 0.000 nodecolor
newpath 1250 288 moveto
1250 324 lineto
1383 324 lineto
1383 288 lineto
closepath stroke
0.000 0.000 0.000 nodecolor
14 /Times-Roman set_font
1257.5 307.4 moveto 117 (mia_instrument_base) alignedtext
grestore
% mia_instrument_base->camera
gsave
1 setlinewidth
0.000 0.000 0.000 edgecolor
newpath 1250 289 moveto
1215 279 1173 266 1136 252 curveto
1133 251 1130 249 1127 248 curveto
stroke
grestore
% radar_base
gsave
1 setlinewidth
0.000 0.000 0.000 nodecolor
newpath 1145 216 moveto
1145 252 lineto
1220 252 lineto
1220 216 lineto
closepath stroke
0.000 0.000 0.000 nodecolor
14 /Times-Roman set_font
1152.5 235.4 moveto 59 (radar_base) alignedtext
grestore
% mia_instrument_base->radar_base
gsave
1 setlinewidth
0.000 0.000 0.000 edgecolor
newpath 1282 288 moveto
1261 277 1235 263 1215 252 curveto
stroke
grestore
% energymap
gsave
1 setlinewidth
0.000 0.000 0.000 nodecolor
newpath 1237 216 moveto
1237 252 lineto
1314 252 lineto
1314 216 lineto
closepath stroke
0.000 0.000 0.000 nodecolor
14 /Times-Roman set_font
1244.5 235.4 moveto 61 (energymap) alignedtext
grestore
% mia_instrument_base->energymap
gsave
1 setlinewidth
0.000 0.000 0.000 edgecolor
newpath 1306 288 moveto
1300 277 1292 263 1285 252 curveto
stroke
grestore
% heater
gsave
1 setlinewidth
0.000 0.000 0.000 nodecolor
newpath 1331 216 moveto
1331 252 lineto
1385 252 lineto
1385 216 lineto
closepath stroke
0.000 0.000 0.000 nodecolor
14 /Times-Roman set_font
1341.5 235.4 moveto 33 (heater) alignedtext
grestore
% mia_instrument_base->heater
gsave
1 setlinewidth
0.000 0.000 0.000 edgecolor
newpath 1327 288 moveto
1333 277 1341 263 1348 252 curveto
stroke
grestore
% magnetometer
gsave
1 setlinewidth
0.000 0.000 0.000 nodecolor
newpath 1403 216 moveto
1403 252 lineto
1498 252 lineto
1498 216 lineto
closepath stroke
0.000 0.000 0.000 nodecolor
14 /Times-Roman set_font
1410.5 235.4 moveto 79 (magnetometer) alignedtext
grestore
% mia_instrument_base->magnetometer
gsave
1 setlinewidth
0.000 0.000 0.000 edgecolor
newpath 1350 288 moveto
1371 277 1397 263 1417 252 curveto
stroke
grestore
% riometer
gsave
1 setlinewidth
0.000 0.000 0.000 nodecolor
newpath 1515 216 moveto
1515 252 lineto
1578 252 lineto
1578 216 lineto
closepath stroke
0.000 0.000 0.000 nodecolor
14 /Times-Roman set_font
1522.5 235.4 moveto 47 (riometer) alignedtext
grestore
% mia_instrument_base->riometer
gsave
1 setlinewidth
0.000 0.000 0.000 edgecolor
newpath 1383 289 moveto
1420 280 1466 267 1506 252 curveto
1509 251 1512 250 1515 248 curveto
stroke
grestore
% camera_image
gsave
1 setlinewidth
0.000 0.000 0.000 nodecolor
newpath 170 72 moveto
170 108 lineto
266 108 lineto
266 72 lineto
closepath stroke
0.000 0.000 0.000 nodecolor
14 /Times-Roman set_font
178 91.4 moveto 80 (camera_image) alignedtext
grestore
% camera_image_base
gsave
1 setlinewidth
0.000 0.000 0.000 nodecolor
newpath 216 144 moveto
216 180 lineto
343 180 lineto
343 144 lineto
closepath stroke
0.000 0.000 0.000 nodecolor
14 /Times-Roman set_font
223.5 163.4 moveto 111 (camera_image_base) alignedtext
grestore
% camera_image_base->camera_image
gsave
1 setlinewidth
0.000 0.000 0.000 edgecolor
newpath 264 144 moveto
255 133 243 119 233 108 curveto
stroke
grestore
% energymap_image
gsave
1 setlinewidth
0.000 0.000 0.000 nodecolor
newpath 284 72 moveto
284 108 lineto
401 108 lineto
401 72 lineto
closepath stroke
0.000 0.000 0.000 nodecolor
14 /Times-Roman set_font
291.5 91.4 moveto 101 (energymap_image) alignedtext
grestore
% camera_image_base->energymap_image
gsave
1 setlinewidth
0.000 0.000 0.000 edgecolor
newpath 295 144 moveto
305 133 317 119 326 108 curveto
stroke
grestore
% mia_image_base->camera_image_base
gsave
1 setlinewidth
0.000 0.000 0.000 edgecolor
newpath 366 216 moveto
348 205 326 191 308 180 curveto
stroke
grestore
% rio_image
gsave
1 setlinewidth
0.000 0.000 0.000 nodecolor
newpath 360 144 moveto
360 180 lineto
432 180 lineto
432 144 lineto
closepath stroke
0.000 0.000 0.000 nodecolor
14 /Times-Roman set_font
368 163.4 moveto 56 (rio_image) alignedtext
grestore
% mia_image_base->rio_image
gsave
1 setlinewidth
0.000 0.000 0.000 edgecolor
newpath 396 216 moveto
396 205 396 191 396 180 curveto
stroke
grestore
% cs_radar
gsave
1 setlinewidth
0.000 0.000 0.000 nodecolor
newpath 1112 144 moveto
1112 180 lineto
1174 180 lineto
1174 144 lineto
closepath stroke
0.000 0.000 0.000 nodecolor
14 /Times-Roman set_font
1120 163.4 moveto 46 (cs_radar) alignedtext
grestore
% radar_base->cs_radar
gsave
1 setlinewidth
0.000 0.000 0.000 edgecolor
newpath 1172 216 moveto
1166 205 1159 191 1153 180 curveto
stroke
grestore
% is_radar
gsave
1 setlinewidth
0.000 0.000 0.000 nodecolor
newpath 1192 144 moveto
1192 180 lineto
1252 180 lineto
1252 144 lineto
closepath stroke
0.000 0.000 0.000 nodecolor
14 /Times-Roman set_font
1200 163.4 moveto 44 (is_radar) alignedtext
grestore
% radar_base->is_radar
gsave
1 setlinewidth
0.000 0.000 0.000 edgecolor
newpath 1192 216 moveto
1198 205 1206 191 1212 180 curveto
stroke
grestore
% location
gsave
1 setlinewidth
0.000 0.000 0.000 nodecolor
newpath 1927 288 moveto
1927 324 lineto
1987 324 lineto
1987 288 lineto
closepath stroke
0.000 0.000 0.000 nodecolor
14 /Times-Roman set_font
1935 307.4 moveto 44 (location) alignedtext
grestore
% mag_data_samnet
gsave
1 setlinewidth
0.000 0.000 0.000 nodecolor
newpath 450 144 moveto
450 180 lineto
565 180 lineto
565 144 lineto
closepath stroke
0.000 0.000 0.000 nodecolor
14 /Times-Roman set_font
457.5 163.4 moveto 99 (mag_data_samnet) alignedtext
grestore
% mag_data->mag_data_samnet
gsave
1 setlinewidth
0.000 0.000 0.000 edgecolor
newpath 584 216 moveto
568 205 548 191 532 180 curveto
stroke
grestore
% mag_qdc
gsave
1 setlinewidth
0.000 0.000 0.000 nodecolor
newpath 582 144 moveto
582 180 lineto
648 180 lineto
648 144 lineto
closepath stroke
0.000 0.000 0.000 nodecolor
14 /Times-Roman set_font
590 163.4 moveto 50 (mag_qdc) alignedtext
grestore
% mag_data->mag_qdc
gsave
1 setlinewidth
0.000 0.000 0.000 edgecolor
newpath 611 216 moveto
612 205 613 191 614 180 curveto
stroke
grestore
% mag_qdc_fft
gsave
1 setlinewidth
0.000 0.000 0.000 nodecolor
newpath 572 72 moveto
572 108 lineto
658 108 lineto
658 72 lineto
closepath stroke
0.000 0.000 0.000 nodecolor
14 /Times-Roman set_font
580 91.4 moveto 70 (mag_qdc_fft) alignedtext
grestore
% mag_qdc->mag_qdc_fft
gsave
1 setlinewidth
0.000 0.000 0.000 edgecolor
newpath 615 144 moveto
615 133 615 119 615 108 curveto
stroke
grestore
% pulsation_magnetometer
gsave
1 setlinewidth
0.000 0.000 0.000 nodecolor
newpath 1375 144 moveto
1375 180 lineto
1526 180 lineto
1526 144 lineto
closepath stroke
0.000 0.000 0.000 nodecolor
14 /Times-Roman set_font
1382.5 163.4 moveto 135 (pulsation_magnetometer) alignedtext
grestore
% magnetometer->pulsation_magnetometer
gsave
1 setlinewidth
0.000 0.000 0.000 edgecolor
newpath 1450 216 moveto
1450 205 1450 191 1450 180 curveto
stroke
grestore
% mia_despike_base
gsave
1 setlinewidth
0.000 0.000 0.000 nodecolor
newpath 1705 216 moveto
1705 252 lineto
1821 252 lineto
1821 216 lineto
closepath stroke
0.000 0.000 0.000 nodecolor
14 /Times-Roman set_font
1713 235.4 moveto 100 (mia_despike_base) alignedtext
grestore
% mia_filter_as_despike
gsave
1 setlinewidth
0.000 0.000 0.000 nodecolor
newpath 1543 144 moveto
1543 180 lineto
1679 180 lineto
1679 144 lineto
closepath stroke
0.000 0.000 0.000 nodecolor
14 /Times-Roman set_font
1551 163.4 moveto 120 (mia_filter_as_despike) alignedtext
grestore
% mia_despike_base->mia_filter_as_despike
gsave
1 setlinewidth
0.000 0.000 0.000 edgecolor
newpath 1725 216 moveto
1702 205 1672 191 1649 180 curveto
stroke
grestore
% mia_filter_chauvenet
gsave
1 setlinewidth
0.000 0.000 0.000 nodecolor
newpath 1697 144 moveto
1697 180 lineto
1829 180 lineto
1829 144 lineto
closepath stroke
0.000 0.000 0.000 nodecolor
14 /Times-Roman set_font
1705 163.4 moveto 116 (mia_filter_chauvenet) alignedtext
grestore
% mia_despike_base->mia_filter_chauvenet
gsave
1 setlinewidth
0.000 0.000 0.000 edgecolor
newpath 1763 216 moveto
1763 205 1763 191 1763 180 curveto
stroke
grestore
% mia_filter_dkm_despike
gsave
1 setlinewidth
0.000 0.000 0.000 nodecolor
newpath 1847 144 moveto
1847 180 lineto
1997 180 lineto
1997 144 lineto
closepath stroke
0.000 0.000 0.000 nodecolor
14 /Times-Roman set_font
1855 163.4 moveto 134 (mia_filter_dkm_despike) alignedtext
grestore
% mia_despike_base->mia_filter_dkm_despike
gsave
1 setlinewidth
0.000 0.000 0.000 edgecolor
newpath 1803 216 moveto
1827 205 1858 191 1882 180 curveto
stroke
grestore
% mia_filter_base
gsave
1 setlinewidth
0.000 0.000 0.000 nodecolor
newpath 2491 288 moveto
2491 324 lineto
2592 324 lineto
2592 288 lineto
closepath stroke
0.000 0.000 0.000 nodecolor
14 /Times-Roman set_font
2498.5 307.4 moveto 85 (mia_filter_base) alignedtext
grestore
% mia_filter_base->mia_despike_base
gsave
1 setlinewidth
0.000 0.000 0.000 edgecolor
newpath 2491 305 moveto
2374 303 2076 294 1830 252 curveto
1827 251 1824 251 1821 250 curveto
stroke
grestore
% mia_filter_fixed
gsave
1 setlinewidth
0.000 0.000 0.000 nodecolor
newpath 1839 216 moveto
1839 252 lineto
1944 252 lineto
1944 216 lineto
closepath stroke
0.000 0.000 0.000 nodecolor
14 /Times-Roman set_font
1846.5 235.4 moveto 89 (mia_filter_fixed) alignedtext
grestore
% mia_filter_base->mia_filter_fixed
gsave
1 setlinewidth
0.000 0.000 0.000 edgecolor
newpath 2491 305 moveto
2388 301 2150 289 1952 252 curveto
1949 251 1947 251 1944 250 curveto
stroke
grestore
% mia_filter_gaussian_average
gsave
1 setlinewidth
0.000 0.000 0.000 nodecolor
newpath 1961 216 moveto
1961 252 lineto
2133 252 lineto
2133 216 lineto
closepath stroke
0.000 0.000 0.000 nodecolor
14 /Times-Roman set_font
1969 235.4 moveto 156 (mia_filter_gaussian_average) alignedtext
grestore
% mia_filter_base->mia_filter_gaussian_average
gsave
1 setlinewidth
0.000 0.000 0.000 edgecolor
newpath 2491 300 moveto
2415 291 2267 272 2142 252 curveto
2139 252 2136 251 2133 251 curveto
stroke
grestore
% mia_filter_interp
gsave
1 setlinewidth
0.000 0.000 0.000 nodecolor
newpath 2151 216 moveto
2151 252 lineto
2259 252 lineto
2259 216 lineto
closepath stroke
0.000 0.000 0.000 nodecolor
14 /Times-Roman set_font
2159 235.4 moveto 92 (mia_filter_interp) alignedtext
grestore
% mia_filter_base->mia_filter_interp
gsave
1 setlinewidth
0.000 0.000 0.000 edgecolor
newpath 2491 297 moveto
2436 288 2346 271 2268 252 curveto
2265 251 2262 251 2259 250 curveto
stroke
grestore
% mia_filter_qdc_mean_sd
gsave
1 setlinewidth
0.000 0.000 0.000 nodecolor
newpath 2277 216 moveto
2277 252 lineto
2429 252 lineto
2429 216 lineto
closepath stroke
0.000 0.000 0.000 nodecolor
14 /Times-Roman set_font
2285 235.4 moveto 136 (mia_filter_qdc_mean_sd) alignedtext
grestore
% mia_filter_base->mia_filter_qdc_mean_sd
gsave
1 setlinewidth
0.000 0.000 0.000 edgecolor
newpath 2494 288 moveto
2465 277 2429 263 2400 252 curveto
stroke
grestore
% mia_filter_remove_scintillation
gsave
1 setlinewidth
0.000 0.000 0.000 nodecolor
newpath 2447 216 moveto
2447 252 lineto
2636 252 lineto
2636 216 lineto
closepath stroke
0.000 0.000 0.000 nodecolor
14 /Times-Roman set_font
2454.5 235.4 moveto 173 (mia_filter_remove_scintillation) alignedtext
grestore
% mia_filter_base->mia_filter_remove_scintillation
gsave
1 setlinewidth
0.000 0.000 0.000 edgecolor
newpath 2541 288 moveto
2541 277 2541 263 2541 252 curveto
stroke
grestore
% mia_filter_replace_nans
gsave
1 setlinewidth
0.000 0.000 0.000 nodecolor
newpath 2653 216 moveto
2653 252 lineto
2800 252 lineto
2800 216 lineto
closepath stroke
0.000 0.000 0.000 nodecolor
14 /Times-Roman set_font
2660.5 235.4 moveto 131 (mia_filter_replace_nans) alignedtext
grestore
% mia_filter_base->mia_filter_replace_nans
gsave
1 setlinewidth
0.000 0.000 0.000 edgecolor
newpath 2588 288 moveto
2616 277 2652 263 2680 252 curveto
stroke
grestore
% mia_filter_samnet
gsave
1 setlinewidth
0.000 0.000 0.000 nodecolor
newpath 2817 216 moveto
2817 252 lineto
2933 252 lineto
2933 216 lineto
closepath stroke
0.000 0.000 0.000 nodecolor
14 /Times-Roman set_font
2825 235.4 moveto 100 (mia_filter_samnet) alignedtext
grestore
% mia_filter_base->mia_filter_samnet
gsave
1 setlinewidth
0.000 0.000 0.000 edgecolor
newpath 2592 290 moveto
2595 289 2597 289 2600 288 curveto
2691 266 2716 272 2808 252 curveto
2811 251 2814 251 2817 250 curveto
stroke
grestore
% mia_filter_sgolay
gsave
1 setlinewidth
0.000 0.000 0.000 nodecolor
newpath 2951 216 moveto
2951 252 lineto
3063 252 lineto
3063 216 lineto
closepath stroke
0.000 0.000 0.000 nodecolor
14 /Times-Roman set_font
2959 235.4 moveto 96 (mia_filter_sgolay) alignedtext
grestore
% mia_filter_base->mia_filter_sgolay
gsave
1 setlinewidth
0.000 0.000 0.000 edgecolor
newpath 2592 290 moveto
2595 289 2597 288 2600 288 curveto
2749 257 2791 280 2942 252 curveto
2945 251 2948 251 2951 250 curveto
stroke
grestore
% mia_filter_sliding_average
gsave
1 setlinewidth
0.000 0.000 0.000 nodecolor
newpath 3081 216 moveto
3081 252 lineto
3243 252 lineto
3243 216 lineto
closepath stroke
0.000 0.000 0.000 nodecolor
14 /Times-Roman set_font
3089 235.4 moveto 146 (mia_filter_sliding_average) alignedtext
grestore
% mia_filter_base->mia_filter_sliding_average
gsave
1 setlinewidth
0.000 0.000 0.000 edgecolor
newpath 2592 290 moveto
2595 289 2597 288 2600 288 curveto
2806 249 2863 280 3072 252 curveto
3075 252 3078 251 3081 251 curveto
stroke
grestore
% mia_filter_weighted_average
gsave
1 setlinewidth
0.000 0.000 0.000 nodecolor
newpath 3261 216 moveto
3261 252 lineto
3436 252 lineto
3436 216 lineto
closepath stroke
0.000 0.000 0.000 nodecolor
14 /Times-Roman set_font
3268.5 235.4 moveto 159 (mia_filter_weighted_average) alignedtext
grestore
% mia_filter_base->mia_filter_weighted_average
gsave
1 setlinewidth
0.000 0.000 0.000 edgecolor
newpath 2592 289 moveto
2595 289 2597 288 2600 288 curveto
2885 237 2963 286 3252 252 curveto
3255 252 3258 251 3261 251 curveto
stroke
grestore
% mia_filter_srm_despike
gsave
1 setlinewidth
0.000 0.000 0.000 nodecolor
newpath 1538 72 moveto
1538 108 lineto
1684 108 lineto
1684 72 lineto
closepath stroke
0.000 0.000 0.000 nodecolor
14 /Times-Roman set_font
1546 91.4 moveto 130 (mia_filter_srm_despike) alignedtext
grestore
% mia_filter_as_despike->mia_filter_srm_despike
gsave
1 setlinewidth
0.000 0.000 0.000 edgecolor
newpath 1611 144 moveto
1611 133 1611 119 1611 108 curveto
stroke
grestore
% opticalfilter
gsave
1 setlinewidth
0.000 0.000 0.000 nodecolor
newpath 2609 288 moveto
2609 324 lineto
2688 324 lineto
2688 288 lineto
closepath stroke
0.000 0.000 0.000 nodecolor
14 /Times-Roman set_font
2616.5 307.4 moveto 63 (opticalfilter) alignedtext
grestore
% rio_abs
gsave
1 setlinewidth
0.000 0.000 0.000 nodecolor
newpath 666 144 moveto
666 180 lineto
722 180 lineto
722 144 lineto
closepath stroke
0.000 0.000 0.000 nodecolor
14 /Times-Roman set_font
674 163.4 moveto 40 (rio_abs) alignedtext
grestore
% rio_base->rio_abs
gsave
1 setlinewidth
0.000 0.000 0.000 edgecolor
newpath 698 216 moveto
697 205 696 191 695 180 curveto
stroke
grestore
% rio_power
gsave
1 setlinewidth
0.000 0.000 0.000 nodecolor
newpath 740 144 moveto
740 180 lineto
812 180 lineto
812 144 lineto
closepath stroke
0.000 0.000 0.000 nodecolor
14 /Times-Roman set_font
748 163.4 moveto 56 (rio_power) alignedtext
grestore
% rio_base->rio_power
gsave
1 setlinewidth
0.000 0.000 0.000 edgecolor
newpath 718 216 moveto
730 205 745 191 757 180 curveto
stroke
grestore
% rio_qdc_base
gsave
1 setlinewidth
0.000 0.000 0.000 nodecolor
newpath 830 144 moveto
830 180 lineto
918 180 lineto
918 144 lineto
closepath stroke
0.000 0.000 0.000 nodecolor
14 /Times-Roman set_font
838 163.4 moveto 72 (rio_qdc_base) alignedtext
grestore
% rio_base->rio_qdc_base
gsave
1 setlinewidth
0.000 0.000 0.000 edgecolor
newpath 730 220 moveto
733 218 736 217 739 216 curveto
769 203 804 189 830 179 curveto
stroke
grestore
% rio_rawpower
gsave
1 setlinewidth
0.000 0.000 0.000 nodecolor
newpath 1002 144 moveto
1002 180 lineto
1094 180 lineto
1094 144 lineto
closepath stroke
0.000 0.000 0.000 nodecolor
14 /Times-Roman set_font
1010 163.4 moveto 76 (rio_rawpower) alignedtext
grestore
% rio_base->rio_rawpower
gsave
1 setlinewidth
0.000 0.000 0.000 edgecolor
newpath 730 219 moveto
733 218 736 217 739 216 curveto
764 208 922 182 1002 169 curveto
stroke
grestore
% rio_power_calib
gsave
1 setlinewidth
0.000 0.000 0.000 nodecolor
newpath 700 72 moveto
700 108 lineto
805 108 lineto
805 72 lineto
closepath stroke
0.000 0.000 0.000 nodecolor
14 /Times-Roman set_font
707.5 91.4 moveto 89 (rio_power_calib) alignedtext
grestore
% rio_power->rio_power_calib
gsave
1 setlinewidth
0.000 0.000 0.000 edgecolor
newpath 770 144 moveto
766 133 762 119 758 108 curveto
stroke
grestore
% rio_qdc
gsave
1 setlinewidth
0.000 0.000 0.000 nodecolor
newpath 822 72 moveto
822 108 lineto
879 108 lineto
879 72 lineto
closepath stroke
0.000 0.000 0.000 nodecolor
14 /Times-Roman set_font
829.5 91.4 moveto 41 (rio_qdc) alignedtext
grestore
% rio_qdc_fft
gsave
1 setlinewidth
0.000 0.000 0.000 nodecolor
newpath 682 0 moveto
682 36 lineto
759 36 lineto
759 0 lineto
closepath stroke
0.000 0.000 0.000 nodecolor
14 /Times-Roman set_font
689.5 19.4 moveto 61 (rio_qdc_fft) alignedtext
grestore
% rio_qdc->rio_qdc_fft
gsave
1 setlinewidth
0.000 0.000 0.000 edgecolor
newpath 822 74 moveto
802 63 774 48 753 36 curveto
stroke
grestore
% rio_qdc_mean_sd
gsave
1 setlinewidth
0.000 0.000 0.000 nodecolor
newpath 776 0 moveto
776 36 lineto
889 36 lineto
889 0 lineto
closepath stroke
0.000 0.000 0.000 nodecolor
14 /Times-Roman set_font
783.5 19.4 moveto 97 (rio_qdc_mean_sd) alignedtext
grestore
% rio_qdc->rio_qdc_mean_sd
gsave
1 setlinewidth
0.000 0.000 0.000 edgecolor
newpath 845 72 moveto
842 61 839 47 836 36 curveto
stroke
grestore
% rio_qdc_base->rio_qdc
gsave
1 setlinewidth
0.000 0.000 0.000 edgecolor
newpath 868 144 moveto
864 133 860 119 856 108 curveto
stroke
grestore
% rio_rawqdc
gsave
1 setlinewidth
0.000 0.000 0.000 nodecolor
newpath 906 72 moveto
906 108 lineto
984 108 lineto
984 72 lineto
closepath stroke
0.000 0.000 0.000 nodecolor
14 /Times-Roman set_font
914 91.4 moveto 62 (rio_rawqdc) alignedtext
grestore
% rio_qdc_base->rio_rawqdc
gsave
1 setlinewidth
0.000 0.000 0.000 edgecolor
newpath 892 144 moveto
903 133 917 119 927 108 curveto
stroke
grestore
% rio_rawpower_calib
gsave
1 setlinewidth
0.000 0.000 0.000 nodecolor
newpath 1002 72 moveto
1002 108 lineto
1127 108 lineto
1127 72 lineto
closepath stroke
0.000 0.000 0.000 nodecolor
14 /Times-Roman set_font
1009.5 91.4 moveto 109 (rio_rawpower_calib) alignedtext
grestore
% rio_rawpower->rio_rawpower_calib
gsave
1 setlinewidth
0.000 0.000 0.000 edgecolor
newpath 1052 144 moveto
1055 133 1058 119 1060 108 curveto
stroke
grestore
% rio_rawqdc_fft
gsave
1 setlinewidth
0.000 0.000 0.000 nodecolor
newpath 906 0 moveto
906 36 lineto
1003 36 lineto
1003 0 lineto
closepath stroke
0.000 0.000 0.000 nodecolor
14 /Times-Roman set_font
913.5 19.4 moveto 81 (rio_rawqdc_fft) alignedtext
grestore
% rio_rawqdc->rio_rawqdc_fft
gsave
1 setlinewidth
0.000 0.000 0.000 edgecolor
newpath 947 72 moveto
949 61 950 47 952 36 curveto
stroke
grestore
% rio_rawqdc_mean_sd
gsave
1 setlinewidth
0.000 0.000 0.000 nodecolor
newpath 1020 0 moveto
1020 36 lineto
1153 36 lineto
1153 0 lineto
closepath stroke
0.000 0.000 0.000 nodecolor
14 /Times-Roman set_font
1027.5 19.4 moveto 117 (rio_rawqdc_mean_sd) alignedtext
grestore
% rio_rawqdc->rio_rawqdc_mean_sd
gsave
1 setlinewidth
0.000 0.000 0.000 edgecolor
newpath 981 72 moveto
1002 61 1029 47 1051 36 curveto
stroke
grestore
% timespan
gsave
1 setlinewidth
0.000 0.000 0.000 nodecolor
newpath 2705 288 moveto
2705 324 lineto
2771 324 lineto
2771 288 lineto
closepath stroke
0.000 0.000 0.000 nodecolor
14 /Times-Roman set_font
2713 307.4 moveto 50 (timespan) alignedtext
grestore
% timestamp
gsave
1 setlinewidth
0.000 0.000 0.000 nodecolor
newpath 2789 288 moveto
2789 324 lineto
2863 324 lineto
2863 288 lineto
closepath stroke
0.000 0.000 0.000 nodecolor
14 /Times-Roman set_font
2797 307.4 moveto 58 (timestamp) alignedtext
grestore
% triangle
gsave
1 setlinewidth
0.000 0.000 0.000 nodecolor
newpath 2881 288 moveto
2881 324 lineto
2938 324 lineto
2938 288 lineto
closepath stroke
0.000 0.000 0.000 nodecolor
14 /Times-Roman set_font
2888.5 307.4 moveto 41 (triangle) alignedtext
grestore
% url_handle
gsave
1 setlinewidth
0.000 0.000 0.000 nodecolor
newpath 2955 288 moveto
2955 324 lineto
3029 324 lineto
3029 288 lineto
closepath stroke
0.000 0.000 0.000 nodecolor
14 /Times-Roman set_font
2963 307.4 moveto 58 (url_handle) alignedtext
grestore
% viewmenu
gsave
1 setlinewidth
0.000 0.000 0.000 nodecolor
newpath 3047 288 moveto
3047 324 lineto
3120 324 lineto
3120 288 lineto
closepath stroke
0.000 0.000 0.000 nodecolor
14 /Times-Roman set_font
3054.5 307.4 moveto 57 (viewmenu) alignedtext
grestore
endpage
showpage
grestore
%%PageTrailer
%%EndPage: 1
%%Trailer
%%Pages: 1
%%BoundingBox: 36 36 3479 368
end
restore
%%EOF
