digraph "" {
node [shape=record];
edge [dir=back];
    location [shape=record,label="{<f0> location}"];
    opticalfilter [shape=record,label="{<f0> opticalfilter}"];
    timespan [shape=record,label="{<f0> timespan}"];
    timestamp [shape=record,label="{<f0> timestamp}"];
    triangle [shape=record,label="{<f0> triangle}"];
    url_handle [shape=record,label="{<f0> url_handle}"];
    viewmenu [shape=record,label="{<f0> viewmenu}"];
}
