digraph "" {
node [shape=record];
edge [dir=back];
    mia_despike_base [shape=record,label="{<f0> mia_despike_base}"];
    mia_filter_base [shape=record,label="{<f0> mia_filter_base}"];
    mia_filter_as_despike [shape=record,label="{<f0> mia_filter_as_despike}"];
    mia_filter_chauvenet [shape=record,label="{<f0> mia_filter_chauvenet}"];
    mia_filter_dkm_despike [shape=record,label="{<f0> mia_filter_dkm_despike}"];
    mia_filter_fixed [shape=record,label="{<f0> mia_filter_fixed}"];
    mia_filter_gaussian_average [shape=record,label="{<f0> mia_filter_gaussian_average}"];
    mia_filter_interp [shape=record,label="{<f0> mia_filter_interp}"];
    mia_filter_qdc_mean_sd [shape=record,label="{<f0> mia_filter_qdc_mean_sd}"];
    mia_filter_remove_scintillation [shape=record,label="{<f0> mia_filter_remove_scintillation}"];
    mia_filter_replace_nans [shape=record,label="{<f0> mia_filter_replace_nans}"];
    mia_filter_samnet [shape=record,label="{<f0> mia_filter_samnet}"];
    mia_filter_sgolay [shape=record,label="{<f0> mia_filter_sgolay}"];
    mia_filter_sliding_average [shape=record,label="{<f0> mia_filter_sliding_average}"];
    mia_filter_srm_despike [shape=record,label="{<f0> mia_filter_srm_despike}"];
    mia_filter_weighted_average [shape=record,label="{<f0> mia_filter_weighted_average}"];
    mia_filter_base -> mia_despike_base [arrowhead = "none" arrowtail = "none"]
    mia_despike_base -> mia_filter_as_despike [arrowhead = "none" arrowtail = "none"]
    mia_despike_base -> mia_filter_chauvenet [arrowhead = "none" arrowtail = "none"]
    mia_despike_base -> mia_filter_dkm_despike [arrowhead = "none" arrowtail = "none"]
    mia_filter_base -> mia_filter_fixed [arrowhead = "none" arrowtail = "none"]
    mia_filter_base -> mia_filter_gaussian_average [arrowhead = "none" arrowtail = "none"]
    mia_filter_base -> mia_filter_interp [arrowhead = "none" arrowtail = "none"]
    mia_filter_base -> mia_filter_qdc_mean_sd [arrowhead = "none" arrowtail = "none"]
    mia_filter_base -> mia_filter_remove_scintillation [arrowhead = "none" arrowtail = "none"]
    mia_filter_base -> mia_filter_replace_nans [arrowhead = "none" arrowtail = "none"]
    mia_filter_base -> mia_filter_samnet [arrowhead = "none" arrowtail = "none"]
    mia_filter_base -> mia_filter_sgolay [arrowhead = "none" arrowtail = "none"]
    mia_filter_base -> mia_filter_sliding_average [arrowhead = "none" arrowtail = "none"]
    mia_filter_as_despike -> mia_filter_srm_despike [arrowhead = "none" arrowtail = "none"]
    mia_filter_base -> mia_filter_weighted_average [arrowhead = "none" arrowtail = "none"]
}
