%!PS-Adobe-2.0
%%Creator: Graphviz version 2.18 (Wed Aug  6 10:29:47 UTC 2008)
%%For: (marple) Steve Marple,,,
%%Title: 
%%Pages: (atend)
%%BoundingBox: (atend)
%%EndComments
save
%%BeginProlog
/DotDict 200 dict def
DotDict begin

/setupLatin1 {
mark
/EncodingVector 256 array def
 EncodingVector 0

ISOLatin1Encoding 0 255 getinterval putinterval
EncodingVector 45 /hyphen put

% Set up ISO Latin 1 character encoding
/starnetISO {
        dup dup findfont dup length dict begin
        { 1 index /FID ne { def }{ pop pop } ifelse
        } forall
        /Encoding EncodingVector def
        currentdict end definefont
} def
/Times-Roman starnetISO def
/Times-Italic starnetISO def
/Times-Bold starnetISO def
/Times-BoldItalic starnetISO def
/Helvetica starnetISO def
/Helvetica-Oblique starnetISO def
/Helvetica-Bold starnetISO def
/Helvetica-BoldOblique starnetISO def
/Courier starnetISO def
/Courier-Oblique starnetISO def
/Courier-Bold starnetISO def
/Courier-BoldOblique starnetISO def
cleartomark
} bind def

%%BeginResource: procset graphviz 0 0
/coord-font-family /Times-Roman def
/default-font-family /Times-Roman def
/coordfont coord-font-family findfont 8 scalefont def

/InvScaleFactor 1.0 def
/set_scale {
       dup 1 exch div /InvScaleFactor exch def
       scale
} bind def

% styles
/solid { [] 0 setdash } bind def
/dashed { [9 InvScaleFactor mul dup ] 0 setdash } bind def
/dotted { [1 InvScaleFactor mul 6 InvScaleFactor mul] 0 setdash } bind def
/invis {/fill {newpath} def /stroke {newpath} def /show {pop newpath} def} bind def
/bold { 2 setlinewidth } bind def
/filled { } bind def
/unfilled { } bind def
/rounded { } bind def
/diagonals { } bind def

% hooks for setting color 
/nodecolor { sethsbcolor } bind def
/edgecolor { sethsbcolor } bind def
/graphcolor { sethsbcolor } bind def
/nopcolor {pop pop pop} bind def

/beginpage {	% i j npages
	/npages exch def
	/j exch def
	/i exch def
	/str 10 string def
	npages 1 gt {
		gsave
			coordfont setfont
			0 0 moveto
			(\() show i str cvs show (,) show j str cvs show (\)) show
		grestore
	} if
} bind def

/set_font {
	findfont exch
	scalefont setfont
} def

% draw text fitted to its expected width
/alignedtext {			% width text
	/text exch def
	/width exch def
	gsave
		width 0 gt {
			[] 0 setdash
			text stringwidth pop width exch sub text length div 0 text ashow
		} if
	grestore
} def

/boxprim {				% xcorner ycorner xsize ysize
		4 2 roll
		moveto
		2 copy
		exch 0 rlineto
		0 exch rlineto
		pop neg 0 rlineto
		closepath
} bind def

/ellipse_path {
	/ry exch def
	/rx exch def
	/y exch def
	/x exch def
	matrix currentmatrix
	newpath
	x y translate
	rx ry scale
	0 0 1 0 360 arc
	setmatrix
} bind def

/endpage { showpage } bind def
/showpage { } def

/layercolorseq
	[	% layer color sequence - darkest to lightest
		[0 0 0]
		[.2 .8 .8]
		[.4 .8 .8]
		[.6 .8 .8]
		[.8 .8 .8]
	]
def

/layerlen layercolorseq length def

/setlayer {/maxlayer exch def /curlayer exch def
	layercolorseq curlayer 1 sub layerlen mod get
	aload pop sethsbcolor
	/nodecolor {nopcolor} def
	/edgecolor {nopcolor} def
	/graphcolor {nopcolor} def
} bind def

/onlayer { curlayer ne {invis} if } def

/onlayers {
	/myupper exch def
	/mylower exch def
	curlayer mylower lt
	curlayer myupper gt
	or
	{invis} if
} def

/curlayer 0 def

%%EndResource
%%EndProlog
%%BeginSetup
14 default-font-family set_font
1 setmiterlimit
% /arrowlength 10 def
% /arrowwidth 5 def

% make sure pdfmark is harmless for PS-interpreters other than Distiller
/pdfmark where {pop} {userdict /pdfmark /cleartomark load put} ifelse
% make '<<' and '>>' safe on PS Level 1 devices
/languagelevel where {pop languagelevel}{1} ifelse
2 lt {
    userdict (<<) cvn ([) cvn load put
    userdict (>>) cvn ([) cvn load put
} if

%%EndSetup
setupLatin1
%%Page: 1 1
%%PageBoundingBox: 36 36 1204 368
%%PageOrientation: Portrait
0 0 1 beginpage
gsave
36 36 1168 332 boxprim clip newpath
1 1 set_scale 0 rotate 40 40 translate
% ap_index
gsave
1 setlinewidth
0.000 0.000 0.000 nodecolor
newpath 24 72 moveto
24 108 lineto
90 108 lineto
90 72 lineto
closepath stroke
0.000 0.000 0.000 nodecolor
14 /Times-Roman set_font
32 91.4 moveto 50 (ap_index) alignedtext
grestore
% stp_index_generic
gsave
1 setlinewidth
0.000 0.000 0.000 nodecolor
newpath 0 144 moveto
0 180 lineto
115 180 lineto
115 144 lineto
closepath stroke
0.000 0.000 0.000 nodecolor
14 /Times-Roman set_font
7.5 163.4 moveto 99 (stp_index_generic) alignedtext
grestore
% stp_index_generic->ap_index
gsave
1 setlinewidth
0.000 0.000 0.000 edgecolor
newpath 57 144 moveto
57 133 57 119 57 108 curveto
stroke
grestore
% stp_index_base
gsave
1 setlinewidth
0.000 0.000 0.000 nodecolor
newpath 116 216 moveto
116 252 lineto
215 252 lineto
215 216 lineto
closepath stroke
0.000 0.000 0.000 nodecolor
14 /Times-Roman set_font
123.5 235.4 moveto 83 (stp_index_base) alignedtext
grestore
% stp_index_base->stp_index_generic
gsave
1 setlinewidth
0.000 0.000 0.000 edgecolor
newpath 138 216 moveto
121 205 100 191 84 180 curveto
stroke
grestore
% kp_index
gsave
1 setlinewidth
0.000 0.000 0.000 nodecolor
newpath 132 144 moveto
132 180 lineto
198 180 lineto
198 144 lineto
closepath stroke
0.000 0.000 0.000 nodecolor
14 /Times-Roman set_font
140 163.4 moveto 50 (kp_index) alignedtext
grestore
% stp_index_base->kp_index
gsave
1 setlinewidth
0.000 0.000 0.000 edgecolor
newpath 165 216 moveto
165 205 165 191 165 180 curveto
stroke
grestore
% mia_base
gsave
1 setlinewidth
0.000 0.000 0.000 nodecolor
newpath 524 288 moveto
524 324 lineto
592 324 lineto
592 288 lineto
closepath stroke
0.000 0.000 0.000 nodecolor
14 /Times-Roman set_font
532 307.4 moveto 52 (mia_base) alignedtext
grestore
% mia_base->stp_index_base
gsave
1 setlinewidth
0.000 0.000 0.000 edgecolor
newpath 524 300 moveto
454 287 296 258 215 243 curveto
stroke
grestore
% mia_image_base
gsave
1 setlinewidth
0.000 0.000 0.000 nodecolor
newpath 342 216 moveto
342 252 lineto
450 252 lineto
450 216 lineto
closepath stroke
0.000 0.000 0.000 nodecolor
14 /Times-Roman set_font
350 235.4 moveto 92 (mia_image_base) alignedtext
grestore
% mia_base->mia_image_base
gsave
1 setlinewidth
0.000 0.000 0.000 edgecolor
newpath 524 291 moveto
498 280 463 264 436 252 curveto
stroke
grestore
% heater_data
gsave
1 setlinewidth
0.000 0.000 0.000 nodecolor
newpath 474 216 moveto
474 252 lineto
552 252 lineto
552 216 lineto
closepath stroke
0.000 0.000 0.000 nodecolor
14 /Times-Roman set_font
482 235.4 moveto 62 (heater_data) alignedtext
grestore
% mia_base->heater_data
gsave
1 setlinewidth
0.000 0.000 0.000 edgecolor
newpath 547 288 moveto
540 277 531 263 524 252 curveto
stroke
grestore
% mag_data
gsave
1 setlinewidth
0.000 0.000 0.000 nodecolor
newpath 570 216 moveto
570 252 lineto
639 252 lineto
639 216 lineto
closepath stroke
0.000 0.000 0.000 nodecolor
14 /Times-Roman set_font
577.5 235.4 moveto 53 (mag_data) alignedtext
grestore
% mia_base->mag_data
gsave
1 setlinewidth
0.000 0.000 0.000 edgecolor
newpath 570 288 moveto
577 277 586 263 593 252 curveto
stroke
grestore
% rio_base
gsave
1 setlinewidth
0.000 0.000 0.000 nodecolor
newpath 704 216 moveto
704 252 lineto
766 252 lineto
766 216 lineto
closepath stroke
0.000 0.000 0.000 nodecolor
14 /Times-Roman set_font
712 235.4 moveto 46 (rio_base) alignedtext
grestore
% mia_base->rio_base
gsave
1 setlinewidth
0.000 0.000 0.000 edgecolor
newpath 592 292 moveto
625 279 673 259 704 247 curveto
stroke
grestore
% temp_data
gsave
1 setlinewidth
0.000 0.000 0.000 nodecolor
newpath 784 216 moveto
784 252 lineto
857 252 lineto
857 216 lineto
closepath stroke
0.000 0.000 0.000 nodecolor
14 /Times-Roman set_font
791.5 235.4 moveto 57 (temp_data) alignedtext
grestore
% mia_base->temp_data
gsave
1 setlinewidth
0.000 0.000 0.000 edgecolor
newpath 592 299 moveto
635 290 711 272 775 252 curveto
778 251 781 250 784 249 curveto
stroke
grestore
% camera_image
gsave
1 setlinewidth
0.000 0.000 0.000 nodecolor
newpath 169 72 moveto
169 108 lineto
265 108 lineto
265 72 lineto
closepath stroke
0.000 0.000 0.000 nodecolor
14 /Times-Roman set_font
177 91.4 moveto 80 (camera_image) alignedtext
grestore
% camera_image_base
gsave
1 setlinewidth
0.000 0.000 0.000 nodecolor
newpath 216 144 moveto
216 180 lineto
343 180 lineto
343 144 lineto
closepath stroke
0.000 0.000 0.000 nodecolor
14 /Times-Roman set_font
223.5 163.4 moveto 111 (camera_image_base) alignedtext
grestore
% camera_image_base->camera_image
gsave
1 setlinewidth
0.000 0.000 0.000 edgecolor
newpath 263 144 moveto
254 133 242 119 232 108 curveto
stroke
grestore
% energymap_image
gsave
1 setlinewidth
0.000 0.000 0.000 nodecolor
newpath 283 72 moveto
283 108 lineto
400 108 lineto
400 72 lineto
closepath stroke
0.000 0.000 0.000 nodecolor
14 /Times-Roman set_font
290.5 91.4 moveto 101 (energymap_image) alignedtext
grestore
% camera_image_base->energymap_image
gsave
1 setlinewidth
0.000 0.000 0.000 edgecolor
newpath 295 144 moveto
304 133 316 119 326 108 curveto
stroke
grestore
% mia_image_base->camera_image_base
gsave
1 setlinewidth
0.000 0.000 0.000 edgecolor
newpath 366 216 moveto
348 205 326 191 308 180 curveto
stroke
grestore
% rio_image
gsave
1 setlinewidth
0.000 0.000 0.000 nodecolor
newpath 360 144 moveto
360 180 lineto
432 180 lineto
432 144 lineto
closepath stroke
0.000 0.000 0.000 nodecolor
14 /Times-Roman set_font
368 163.4 moveto 56 (rio_image) alignedtext
grestore
% mia_image_base->rio_image
gsave
1 setlinewidth
0.000 0.000 0.000 edgecolor
newpath 396 216 moveto
396 205 396 191 396 180 curveto
stroke
grestore
% mag_data_samnet
gsave
1 setlinewidth
0.000 0.000 0.000 nodecolor
newpath 450 144 moveto
450 180 lineto
565 180 lineto
565 144 lineto
closepath stroke
0.000 0.000 0.000 nodecolor
14 /Times-Roman set_font
457.5 163.4 moveto 99 (mag_data_samnet) alignedtext
grestore
% mag_data->mag_data_samnet
gsave
1 setlinewidth
0.000 0.000 0.000 edgecolor
newpath 580 216 moveto
565 205 546 191 531 180 curveto
stroke
grestore
% mag_qdc
gsave
1 setlinewidth
0.000 0.000 0.000 nodecolor
newpath 582 144 moveto
582 180 lineto
648 180 lineto
648 144 lineto
closepath stroke
0.000 0.000 0.000 nodecolor
14 /Times-Roman set_font
590 163.4 moveto 50 (mag_qdc) alignedtext
grestore
% mag_data->mag_qdc
gsave
1 setlinewidth
0.000 0.000 0.000 edgecolor
newpath 607 216 moveto
609 205 611 191 612 180 curveto
stroke
grestore
% mag_qdc_fft
gsave
1 setlinewidth
0.000 0.000 0.000 nodecolor
newpath 572 72 moveto
572 108 lineto
658 108 lineto
658 72 lineto
closepath stroke
0.000 0.000 0.000 nodecolor
14 /Times-Roman set_font
580 91.4 moveto 70 (mag_qdc_fft) alignedtext
grestore
% mag_qdc->mag_qdc_fft
gsave
1 setlinewidth
0.000 0.000 0.000 edgecolor
newpath 615 144 moveto
615 133 615 119 615 108 curveto
stroke
grestore
% rio_abs
gsave
1 setlinewidth
0.000 0.000 0.000 nodecolor
newpath 666 144 moveto
666 180 lineto
722 180 lineto
722 144 lineto
closepath stroke
0.000 0.000 0.000 nodecolor
14 /Times-Roman set_font
674 163.4 moveto 40 (rio_abs) alignedtext
grestore
% rio_base->rio_abs
gsave
1 setlinewidth
0.000 0.000 0.000 edgecolor
newpath 725 216 moveto
719 205 711 191 704 180 curveto
stroke
grestore
% rio_power
gsave
1 setlinewidth
0.000 0.000 0.000 nodecolor
newpath 740 144 moveto
740 180 lineto
812 180 lineto
812 144 lineto
closepath stroke
0.000 0.000 0.000 nodecolor
14 /Times-Roman set_font
748 163.4 moveto 56 (rio_power) alignedtext
grestore
% rio_base->rio_power
gsave
1 setlinewidth
0.000 0.000 0.000 edgecolor
newpath 745 216 moveto
751 205 759 191 766 180 curveto
stroke
grestore
% rio_qdc_base
gsave
1 setlinewidth
0.000 0.000 0.000 nodecolor
newpath 830 144 moveto
830 180 lineto
918 180 lineto
918 144 lineto
closepath stroke
0.000 0.000 0.000 nodecolor
14 /Times-Roman set_font
838 163.4 moveto 72 (rio_qdc_base) alignedtext
grestore
% rio_base->rio_qdc_base
gsave
1 setlinewidth
0.000 0.000 0.000 edgecolor
newpath 766 218 moveto
788 207 817 192 839 180 curveto
stroke
grestore
% rio_rawpower
gsave
1 setlinewidth
0.000 0.000 0.000 nodecolor
newpath 981 144 moveto
981 180 lineto
1073 180 lineto
1073 144 lineto
closepath stroke
0.000 0.000 0.000 nodecolor
14 /Times-Roman set_font
989 163.4 moveto 76 (rio_rawpower) alignedtext
grestore
% rio_base->rio_rawpower
gsave
1 setlinewidth
0.000 0.000 0.000 edgecolor
newpath 766 219 moveto
769 218 772 217 775 216 curveto
812 204 919 182 981 171 curveto
stroke
grestore
% rio_power_calib
gsave
1 setlinewidth
0.000 0.000 0.000 nodecolor
newpath 700 72 moveto
700 108 lineto
805 108 lineto
805 72 lineto
closepath stroke
0.000 0.000 0.000 nodecolor
14 /Times-Roman set_font
707.5 91.4 moveto 89 (rio_power_calib) alignedtext
grestore
% rio_power->rio_power_calib
gsave
1 setlinewidth
0.000 0.000 0.000 edgecolor
newpath 770 144 moveto
766 133 762 119 758 108 curveto
stroke
grestore
% rio_qdc
gsave
1 setlinewidth
0.000 0.000 0.000 nodecolor
newpath 822 72 moveto
822 108 lineto
879 108 lineto
879 72 lineto
closepath stroke
0.000 0.000 0.000 nodecolor
14 /Times-Roman set_font
829.5 91.4 moveto 41 (rio_qdc) alignedtext
grestore
% rio_qdc_fft
gsave
1 setlinewidth
0.000 0.000 0.000 nodecolor
newpath 690 0 moveto
690 36 lineto
767 36 lineto
767 0 lineto
closepath stroke
0.000 0.000 0.000 nodecolor
14 /Times-Roman set_font
697.5 19.4 moveto 61 (rio_qdc_fft) alignedtext
grestore
% rio_qdc->rio_qdc_fft
gsave
1 setlinewidth
0.000 0.000 0.000 edgecolor
newpath 822 73 moveto
803 62 778 47 759 36 curveto
stroke
grestore
% rio_qdc_mean_sd
gsave
1 setlinewidth
0.000 0.000 0.000 nodecolor
newpath 784 0 moveto
784 36 lineto
897 36 lineto
897 0 lineto
closepath stroke
0.000 0.000 0.000 nodecolor
14 /Times-Roman set_font
791.5 19.4 moveto 97 (rio_qdc_mean_sd) alignedtext
grestore
% rio_qdc->rio_qdc_mean_sd
gsave
1 setlinewidth
0.000 0.000 0.000 edgecolor
newpath 847 72 moveto
846 61 844 47 843 36 curveto
stroke
grestore
% rio_qdc_base->rio_qdc
gsave
1 setlinewidth
0.000 0.000 0.000 edgecolor
newpath 868 144 moveto
864 133 860 119 856 108 curveto
stroke
grestore
% rio_rawqdc
gsave
1 setlinewidth
0.000 0.000 0.000 nodecolor
newpath 914 72 moveto
914 108 lineto
992 108 lineto
992 72 lineto
closepath stroke
0.000 0.000 0.000 nodecolor
14 /Times-Roman set_font
922 91.4 moveto 62 (rio_rawqdc) alignedtext
grestore
% rio_qdc_base->rio_rawqdc
gsave
1 setlinewidth
0.000 0.000 0.000 edgecolor
newpath 894 144 moveto
906 133 921 119 933 108 curveto
stroke
grestore
% rio_rawpower_calib
gsave
1 setlinewidth
0.000 0.000 0.000 nodecolor
newpath 1010 72 moveto
1010 108 lineto
1135 108 lineto
1135 72 lineto
closepath stroke
0.000 0.000 0.000 nodecolor
14 /Times-Roman set_font
1017.5 91.4 moveto 109 (rio_rawpower_calib) alignedtext
grestore
% rio_rawpower->rio_rawpower_calib
gsave
1 setlinewidth
0.000 0.000 0.000 edgecolor
newpath 1038 144 moveto
1045 133 1054 119 1061 108 curveto
stroke
grestore
% rio_rawqdc_fft
gsave
1 setlinewidth
0.000 0.000 0.000 nodecolor
newpath 914 0 moveto
914 36 lineto
1011 36 lineto
1011 0 lineto
closepath stroke
0.000 0.000 0.000 nodecolor
14 /Times-Roman set_font
921.5 19.4 moveto 81 (rio_rawqdc_fft) alignedtext
grestore
% rio_rawqdc->rio_rawqdc_fft
gsave
1 setlinewidth
0.000 0.000 0.000 edgecolor
newpath 955 72 moveto
957 61 958 47 960 36 curveto
stroke
grestore
% rio_rawqdc_mean_sd
gsave
1 setlinewidth
0.000 0.000 0.000 nodecolor
newpath 1028 0 moveto
1028 36 lineto
1161 36 lineto
1161 0 lineto
closepath stroke
0.000 0.000 0.000 nodecolor
14 /Times-Roman set_font
1035.5 19.4 moveto 117 (rio_rawqdc_mean_sd) alignedtext
grestore
% rio_rawqdc->rio_rawqdc_mean_sd
gsave
1 setlinewidth
0.000 0.000 0.000 edgecolor
newpath 989 72 moveto
1010 61 1037 47 1059 36 curveto
stroke
grestore
endpage
showpage
grestore
%%PageTrailer
%%EndPage: 1
%%Trailer
%%Pages: 1
%%BoundingBox: 36 36 1204 368
end
restore
%%EOF
